task4/f1_top.vcd
$version Generated by VerilatedVcd $end
$timescale 1ps $end

 $scope module TOP $end
  $var wire  5 / N [4:0] $end
  $var wire  1 - clk $end
  $var wire  8 1 data_out [7:0] $end
  $var wire  1 . rst $end
  $var wire  1 0 trigger $end
  $scope module f1_top $end
   $var wire  7 2 K [6:0] $end
   $var wire  5 / N [4:0] $end
   $var wire  1 - clk $end
   $var wire  1 $ cmd_delay $end
   $var wire  1 # cmd_seq $end
   $var wire  8 1 data_out [7:0] $end
   $var wire  1 ' mux_output $end
   $var wire  1 . rst $end
   $var wire  1 % tick_to_mux $end
   $var wire  1 & time_out_to_mux $end
   $var wire  1 0 trigger $end
   $scope module myDelay $end
    $var wire 32 4 WIDTH [31:0] $end
    $var wire  1 - clk $end
    $var wire  7 ( count [6:0] $end
    $var wire 32 ) current_state [31:0] $end
    $var wire  7 2 n [6:0] $end
    $var wire 32 * next_state [31:0] $end
    $var wire  1 . rst $end
    $var wire  1 & time_out $end
    $var wire  1 $ trigger $end
   $upscope $end
   $scope module myStateMachine $end
    $var wire  1 - clk $end
    $var wire  1 $ cmd_delay $end
    $var wire  1 # cmd_seq $end
    $var wire 32 + current_state [31:0] $end
    $var wire  8 1 data_out [7:0] $end
    $var wire  1 ' en $end
    $var wire  1 5 flag $end
    $var wire 32 3 next_state [31:0] $end
    $var wire  1 . rst $end
    $var wire  1 0 trigger $end
   $upscope $end
   $scope module my_divider $end
    $var wire  5 / N [4:0] $end
    $var wire 32 6 WIDTH [31:0] $end
    $var wire  1 - clk $end
    $var wire  5 , count [4:0] $end
    $var wire  1 # en $end
    $var wire  1 . rst $end
    $var wire  1 % tick $end
   $upscope $end
   $scope module my_rnggenerator $end
    $var wire  1 - clk $end
    $var wire  7 2 data_out [7:1] $end
    $var wire  1 7 en $end
    $var wire  1 . rst $end
    $var wire  7 2 sreg [7:1] $end
   $upscope $end
  $upscope $end
 $upscope $end
$enddefinitions $end


#0
1#
0$
0%
0&
0'
b0000000 (
b00000000000000000000000000000000 )
b00000000000000000000000000000000 *
b00000000000000000000000000000000 +
b00000 ,
1-
1.
b10011 /
00
b00000000 1
b0000000 2
b00000000000000000000000000000000 3
b00000000000000000000000000000111 4
05
b00000000000000000000000000000101 6
17
#1
0-
#2
b1111111 (
b10011 ,
1-
b0000001 2
#3
0-
#4
b0000000 (
1-
#5
0-
#6
1-
0.
#7
0-
#8
b10010 ,
1-
b0000010 2
#9
0-
#10
b0000001 (
b10001 ,
1-
b0000100 2
#11
0-
#12
b0000000 (
b10000 ,
1-
b0001001 2
#13
0-
#14
b0001000 (
b01111 ,
1-
b0010010 2
#15
0-
#16
b0000111 (
b01110 ,
1-
b0100100 2
#17
0-
#18
b0000110 (
b01101 ,
1-
b1001001 2
#19
0-
#20
b0000101 (
b01100 ,
1-
b0010011 2
#21
0-
#22
b0000100 (
b01011 ,
1-
b0100110 2
#23
0-
#24
b0000011 (
b01010 ,
1-
b1001101 2
#25
0-
#26
b0000010 (
b01001 ,
1-
b0011010 2
#27
0-
#28
b0000001 (
b01000 ,
1-
b0110100 2
#29
0-
#30
b0000000 (
b00111 ,
1-
b1101001 2
#31
0-
#32
b1101000 (
b00110 ,
1-
b1010011 2
#33
0-
#34
b1100111 (
b00101 ,
1-
b0100111 2
#35
0-
#36
b1100110 (
b00100 ,
1-
b1001111 2
#37
0-
#38
b1100101 (
b00011 ,
1-
b0011110 2
#39
0-
#40
b1100100 (
b00010 ,
1-
b0111101 2
#41
0-
#42
b1100011 (
b00001 ,
1-
b1111011 2
#43
0-
#44
b1100010 (
b00000 ,
1-
b1110111 2
#45
0-
#46
1%
1'
b1100001 (
b10011 ,
1-
b1101110 2
b00000000000000000000000000000001 3
#47
0-
#48
0%
0'
b1100000 (
b00000000000000000000000000000001 +
b10010 ,
1-
b00000001 1
b1011100 2
#49
0-
#50
b1011111 (
b10001 ,
1-
b0111000 2
#51
0-
#52
b1011110 (
b10000 ,
1-
b1110000 2
#53
0-
#54
b1011101 (
b01111 ,
1-
b1100001 2
#55
0-
#56
b1011100 (
b01110 ,
1-
b1000011 2
#57
0-
#58
b1011011 (
b01101 ,
1-
b0000111 2
#59
0-
#60
b1011010 (
b01100 ,
1-
b0001111 2
#61
0-
#62
b1011001 (
b01011 ,
1-
b0011111 2
#63
0-
#64
b1011000 (
b01010 ,
1-
b0111111 2
#65
0-
#66
b1010111 (
b01001 ,
1-
b1111111 2
#67
0-
#68
b1010110 (
b01000 ,
1-
b1111110 2
#69
0-
#70
b1010101 (
b00111 ,
1-
b1111100 2
#71
0-
#72
b1010100 (
b00110 ,
1-
b1111000 2
#73
0-
#74
b1010011 (
b00101 ,
1-
b1110001 2
#75
0-
#76
b1010010 (
b00100 ,
1-
b1100011 2
#77
0-
#78
b1010001 (
b00011 ,
1-
b1000111 2
#79
0-
#80
b1010000 (
b00010 ,
1-
b0001110 2
#81
0-
#82
b1001111 (
b00001 ,
1-
b0011101 2
#83
0-
#84
b1001110 (
b00000 ,
1-
b0111011 2
#85
0-
#86
1%
1'
b1001101 (
b10011 ,
1-
b1110110 2
b00000000000000000000000000000010 3
#87
0-
#88
0%
0'
b1001100 (
b00000000000000000000000000000010 +
b10010 ,
1-
b00000011 1
b1101100 2
#89
0-
#90
b1001011 (
b10001 ,
1-
b1011000 2
#91
0-
#92
b1001010 (
b10000 ,
1-
b0110001 2
#93
0-
#94
b1001001 (
b01111 ,
1-
b1100010 2
#95
0-
#96
b1001000 (
b01110 ,
1-
b1000101 2
#97
0-
#98
b1000111 (
b01101 ,
1-
b0001010 2
#99
0-
#100
b1000110 (
b01100 ,
1-
b0010100 2
#101
0-
#102
b1000101 (
b01011 ,
1-
b0101001 2
#103
0-
#104
b1000100 (
b01010 ,
1-
b1010010 2
#105
0-
#106
b1000011 (
b01001 ,
1-
b0100101 2
#107
0-
#108
b1000010 (
b01000 ,
1-
b1001011 2
#109
0-
#110
b1000001 (
b00111 ,
1-
b0010111 2
#111
0-
#112
b1000000 (
b00110 ,
1-
b0101111 2
#113
0-
#114
b0111111 (
b00101 ,
1-
b1011111 2
#115
0-
#116
b0111110 (
b00100 ,
1-
b0111110 2
#117
0-
#118
b0111101 (
b00011 ,
1-
b1111101 2
#119
0-
#120
b0111100 (
b00010 ,
1-
b1111010 2
#121
0-
#122
b0111011 (
b00001 ,
1-
b1110101 2
#123
0-
#124
b0111010 (
b00000 ,
1-
b1101010 2
#125
0-
#126
1%
1'
b0111001 (
b10011 ,
1-
b1010101 2
b00000000000000000000000000000011 3
#127
0-
#128
0%
0'
b0111000 (
b00000000000000000000000000000011 +
b10010 ,
1-
b00000111 1
b0101010 2
#129
0-
#130
b0110111 (
b10001 ,
1-
b1010100 2
#131
0-
#132
b0110110 (
b10000 ,
1-
b0101000 2
#133
0-
#134
b0110101 (
b01111 ,
1-
b1010000 2
#135
0-
#136
b0110100 (
b01110 ,
1-
b0100001 2
#137
0-
#138
b0110011 (
b01101 ,
1-
b1000010 2
#139
0-
#140
b0110010 (
b01100 ,
1-
b0000101 2
#141
0-
#142
b0110001 (
b01011 ,
1-
b0001011 2
#143
0-
#144
b0110000 (
b01010 ,
1-
b0010110 2
#145
0-
#146
b0101111 (
b01001 ,
1-
b0101101 2
#147
0-
#148
b0101110 (
b01000 ,
1-
b1011011 2
#149
0-
#150
b0101101 (
b00111 ,
1-
b0110111 2
#151
0-
#152
b0101100 (
b00110 ,
1-
b1101111 2
#153
0-
#154
b0101011 (
b00101 ,
1-
b1011110 2
#155
0-
#156
b0101010 (
b00100 ,
1-
b0111100 2
#157
0-
#158
b0101001 (
b00011 ,
1-
b1111001 2
#159
0-
#160
b0101000 (
b00010 ,
1-
b1110011 2
#161
0-
#162
b0100111 (
b00001 ,
1-
b1100111 2
#163
0-
#164
b0100110 (
b00000 ,
1-
b1001110 2
#165
0-
#166
1%
1'
b0100101 (
b10011 ,
1-
b0011100 2
b00000000000000000000000000000100 3
#167
0-
#168
0%
0'
b0100100 (
b00000000000000000000000000000100 +
b10010 ,
1-
b00001111 1
b0111001 2
#169
0-
#170
b0100011 (
b10001 ,
1-
b1110010 2
#171
0-
#172
b0100010 (
b10000 ,
1-
b1100101 2
#173
0-
#174
b0100001 (
b01111 ,
1-
b1001010 2
#175
0-
#176
b0100000 (
b01110 ,
1-
b0010101 2
#177
0-
#178
b0011111 (
b01101 ,
1-
b0101011 2
#179
0-
#180
b0011110 (
b01100 ,
1-
b1010110 2
#181
0-
#182
b0011101 (
b01011 ,
1-
b0101100 2
#183
0-
#184
b0011100 (
b01010 ,
1-
b1011001 2
#185
0-
#186
b0011011 (
b01001 ,
1-
b0110011 2
#187
0-
#188
b0011010 (
b01000 ,
1-
b1100110 2
#189
0-
#190
b0011001 (
b00111 ,
1-
b1001100 2
#191
0-
#192
b0011000 (
b00110 ,
1-
b0011000 2
#193
0-
#194
b0010111 (
b00101 ,
1-
b0110000 2
#195
0-
#196
b0010110 (
b00100 ,
1-
b1100000 2
#197
0-
#198
b0010101 (
b00011 ,
1-
b1000001 2
#199
0-
#200
b0010100 (
b00010 ,
1-
b0000011 2
#201
0-
#202
b0010011 (
b00001 ,
1-
b0000110 2
#203
0-
#204
b0010010 (
b00000 ,
1-
b0001101 2
#205
0-
#206
1%
1'
b0010001 (
b10011 ,
1-
b0011011 2
b00000000000000000000000000000101 3
#207
0-
#208
0%
0'
b0010000 (
b00000000000000000000000000000101 +
b10010 ,
1-
b00011111 1
b0110110 2
#209
0-
#210
b0001111 (
b10001 ,
1-
b1101101 2
#211
0-
#212
b0001110 (
b10000 ,
1-
b1011010 2
#213
0-
#214
b0001101 (
b01111 ,
1-
b0110101 2
#215
0-
#216
b0001100 (
b01110 ,
1-
b1101011 2
#217
0-
#218
b0001011 (
b01101 ,
1-
b1010111 2
#219
0-
#220
b0001010 (
b01100 ,
1-
b0101110 2
#221
0-
#222
b0001001 (
b01011 ,
1-
b1011101 2
#223
0-
#224
b0001000 (
b01010 ,
1-
b0111010 2
#225
0-
#226
b0000111 (
b01001 ,
1-
b1110100 2
#227
0-
#228
b0000110 (
b01000 ,
1-
b1101000 2
#229
0-
#230
b0000101 (
b00111 ,
1-
b1010001 2
#231
0-
#232
b0000100 (
b00110 ,
1-
b0100011 2
#233
0-
#234
b0000011 (
b00101 ,
1-
b1000110 2
#235
0-
#236
b0000010 (
b00100 ,
1-
b0001100 2
#237
0-
#238
b0000001 (
b00011 ,
1-
b0011001 2
#239
0-
#240
b0000000 (
b00010 ,
1-
b0110010 2
#241
0-
#242
b0110001 (
b00001 ,
1-
b1100100 2
#243
0-
#244
b0110000 (
b00000 ,
1-
b1001000 2
#245
0-
#246
1%
1'
b0101111 (
b10011 ,
1-
b0010001 2
b00000000000000000000000000000110 3
#247
0-
#248
0%
0'
b0101110 (
b00000000000000000000000000000110 +
b10010 ,
1-
b00111111 1
b0100010 2
#249
0-
#250
b0101101 (
b10001 ,
1-
b1000100 2
#251
0-
#252
b0101100 (
b10000 ,
1-
b0001000 2
#253
0-
#254
b0101011 (
b01111 ,
1-
b0010000 2
#255
0-
#256
b0101010 (
b01110 ,
1-
b0100000 2
#257
0-
#258
b0101001 (
b01101 ,
1-
b1000000 2
#259
0-
#260
b0101000 (
b01100 ,
1-
b0000001 2
#261
0-
#262
b0100111 (
b01011 ,
1-
b0000010 2
#263
0-
#264
b0100110 (
b01010 ,
1-
b0000100 2
#265
0-
#266
b0100101 (
b01001 ,
1-
b0001001 2
#267
0-
#268
b0100100 (
b01000 ,
1-
b0010010 2
#269
0-
#270
b0100011 (
b00111 ,
1-
b0100100 2
#271
0-
#272
b0100010 (
b00110 ,
1-
b1001001 2
#273
0-
#274
b0100001 (
b00101 ,
1-
b0010011 2
#275
0-
#276
b0100000 (
b00100 ,
1-
b0100110 2
#277
0-
#278
b0011111 (
b00011 ,
1-
b1001101 2
#279
0-
#280
b0011110 (
b00010 ,
1-
b0011010 2
#281
0-
#282
b0011101 (
b00001 ,
1-
b0110100 2
#283
0-
#284
b0011100 (
b00000 ,
1-
b1101001 2
#285
0-
#286
1%
1'
b0011011 (
b10011 ,
1-
b1010011 2
b00000000000000000000000000000111 3
#287
0-
#288
0%
0'
b0011010 (
b00000000000000000000000000000111 +
b10010 ,
1-
b01111111 1
b0100111 2
#289
0-
#290
b0011001 (
b10001 ,
1-
b1001111 2
#291
0-
#292
b0011000 (
b10000 ,
1-
b0011110 2
#293
0-
#294
b0010111 (
b01111 ,
1-
b0111101 2
#295
0-
#296
b0010110 (
b01110 ,
1-
b1111011 2
#297
0-
#298
b0010101 (
b01101 ,
1-
b1110111 2
#299
0-
#300
b0010100 (
b01100 ,
1-
b1101110 2
#301
0-
#302
b0010011 (
b01011 ,
1-
b1011100 2
#303
0-
#304
b0010010 (
b01010 ,
1-
b0111000 2
#305
0-
#306
b0010001 (
b01001 ,
1-
b1110000 2
#307
0-
#308
b0010000 (
b01000 ,
1-
b1100001 2
#309
0-
#310
b0001111 (
b00111 ,
1-
b1000011 2
#311
0-
#312
b0001110 (
b00110 ,
1-
b0000111 2
#313
0-
#314
b0001101 (
b00101 ,
1-
b0001111 2
#315
0-
#316
b0001100 (
b00100 ,
1-
b0011111 2
#317
0-
#318
b0001011 (
b00011 ,
1-
b0111111 2
#319
0-
#320
b0001010 (
b00010 ,
1-
b1111111 2
#321
0-
#322
b0001001 (
b00001 ,
1-
b1111110 2
#323
0-
#324
b0001000 (
b00000 ,
1-
b1111100 2
#325
0-
#326
1%
1'
b0000111 (
b10011 ,
1-
b1111000 2
b00000000000000000000000000001000 3
#327
0-
#328
0#
1$
0%
0'
b0000110 (
b00000000000000000000000000000001 *
b00000000000000000000000000001000 +
b10010 ,
1-
b11111111 1
b1110001 2
#329
0-
#330
0$
b1110000 (
b00000000000000000000000000000001 )
1-
b1100011 2
#331
0-
#332
b1101111 (
1-
b1000111 2
#333
0-
#334
b1101110 (
1-
b0001110 2
#335
0-
#336
b1101101 (
1-
b0011101 2
#337
0-
#338
b1101100 (
1-
b0111011 2
#339
0-
#340
b1101011 (
1-
b1110110 2
#341
0-
#342
b1101010 (
1-
b1101100 2
#343
0-
#344
b1101001 (
1-
b1011000 2
#345
0-
#346
b1101000 (
1-
b0110001 2
#347
0-
#348
b1100111 (
1-
b1100010 2
#349
0-
#350
b1100110 (
1-
b1000101 2
#351
0-
#352
b1100101 (
1-
b0001010 2
#353
0-
#354
b1100100 (
1-
b0010100 2
#355
0-
#356
b1100011 (
1-
b0101001 2
#357
0-
#358
b1100010 (
1-
b1010010 2
#359
0-
#360
b1100001 (
1-
b0100101 2
#361
0-
#362
b1100000 (
1-
b1001011 2
#363
0-
#364
b1011111 (
1-
b0010111 2
#365
0-
#366
b1011110 (
1-
b0101111 2
#367
0-
#368
b1011101 (
1-
b1011111 2
#369
0-
#370
b1011100 (
1-
b0111110 2
#371
0-
#372
b1011011 (
1-
b1111101 2
#373
0-
#374
b1011010 (
1-
b1111010 2
#375
0-
#376
b1011001 (
1-
b1110101 2
#377
0-
#378
b1011000 (
1-
b1101010 2
#379
0-
#380
b1010111 (
1-
b1010101 2
#381
0-
#382
b1010110 (
1-
b0101010 2
#383
0-
#384
b1010101 (
1-
b1010100 2
#385
0-
#386
b1010100 (
1-
b0101000 2
#387
0-
#388
b1010011 (
1-
b1010000 2
#389
0-
#390
b1010010 (
1-
b0100001 2
#391
0-
#392
b1010001 (
1-
b1000010 2
#393
0-
#394
b1010000 (
1-
b0000101 2
#395
0-
#396
b1001111 (
1-
b0001011 2
#397
0-
#398
b1001110 (
1-
b0010110 2
#399
0-
#400
b1001101 (
1-
b0101101 2
#401
0-
#402
b1001100 (
1-
b1011011 2
#403
0-
#404
b1001011 (
1-
b0110111 2
#405
0-
#406
b1001010 (
1-
b1101111 2
#407
0-
#408
b1001001 (
1-
b1011110 2
#409
0-
#410
b1001000 (
1-
b0111100 2
#411
0-
#412
b1000111 (
1-
b1111001 2
#413
0-
#414
b1000110 (
1-
b1110011 2
#415
0-
#416
b1000101 (
1-
b1100111 2
#417
0-
#418
b1000100 (
1-
b1001110 2
#419
0-
#420
b1000011 (
1-
b0011100 2
#421
0-
#422
b1000010 (
1-
b0111001 2
#423
0-
#424
b1000001 (
1-
b1110010 2
#425
0-
#426
b1000000 (
1-
b1100101 2
#427
0-
#428
b0111111 (
1-
b1001010 2
#429
0-
#430
b0111110 (
1-
b0010101 2
#431
0-
#432
b0111101 (
1-
b0101011 2
#433
0-
#434
b0111100 (
1-
b1010110 2
#435
0-
#436
b0111011 (
1-
b0101100 2
#437
0-
#438
b0111010 (
1-
b1011001 2
#439
0-
#440
b0111001 (
1-
b0110011 2
#441
0-
#442
b0111000 (
1-
b1100110 2
#443
0-
#444
b0110111 (
1-
b1001100 2
#445
0-
#446
b0110110 (
1-
b0011000 2
#447
0-
#448
b0110101 (
1-
b0110000 2
#449
0-
#450
b0110100 (
1-
b1100000 2
#451
0-
#452
b0110011 (
1-
b1000001 2
#453
0-
#454
b0110010 (
1-
b0000011 2
#455
0-
#456
b0110001 (
1-
b0000110 2
#457
0-
#458
b0110000 (
1-
b0001101 2
#459
0-
#460
b0101111 (
1-
b0011011 2
#461
0-
#462
b0101110 (
1-
b0110110 2
#463
0-
#464
b0101101 (
1-
b1101101 2
#465
0-
#466
b0101100 (
1-
b1011010 2
#467
0-
#468
b0101011 (
1-
b0110101 2
#469
0-
#470
b0101010 (
1-
b1101011 2
#471
0-
#472
b0101001 (
1-
b1010111 2
#473
0-
#474
b0101000 (
1-
b0101110 2
#475
0-
#476
b0100111 (
1-
b1011101 2
#477
0-
#478
b0100110 (
1-
b0111010 2
#479
0-
#480
b0100101 (
1-
b1110100 2
#481
0-
#482
b0100100 (
1-
b1101000 2
#483
0-
#484
b0100011 (
1-
b1010001 2
#485
0-
#486
b0100010 (
1-
b0100011 2
#487
0-
#488
b0100001 (
1-
b1000110 2
#489
0-
#490
b0100000 (
1-
b0001100 2
#491
0-
#492
b0011111 (
1-
b0011001 2
#493
0-
#494
b0011110 (
1-
b0110010 2
#495
0-
#496
b0011101 (
1-
b1100100 2
#497
0-
#498
b0011100 (
1-
b1001000 2
#499
0-
#500
b0011011 (
1-
b0010001 2
#501
0-
#502
b0011010 (
1-
b0100010 2
#503
0-
#504
b0011001 (
1-
b1000100 2
#505
0-
#506
b0011000 (
1-
b0001000 2
#507
0-
#508
b0010111 (
1-
b0010000 2
#509
0-
#510
b0010110 (
1-
b0100000 2
#511
0-
#512
b0010101 (
1-
b1000000 2
#513
0-
#514
b0010100 (
1-
b0000001 2
#515
0-
#516
b0010011 (
1-
b0000010 2
#517
0-
#518
b0010010 (
1-
b0000100 2
#519
0-
#520
b0010001 (
1-
b0001001 2
#521
0-
#522
b0010000 (
1-
b0010010 2
#523
0-
#524
b0001111 (
1-
b0100100 2
#525
0-
#526
b0001110 (
1-
b1001001 2
#527
0-
#528
b0001101 (
1-
b0010011 2
#529
0-
#530
b0001100 (
1-
b0100110 2
#531
0-
#532
b0001011 (
1-
b1001101 2
#533
0-
#534
b0001010 (
1-
b0011010 2
#535
0-
#536
b0001001 (
1-
b0110100 2
#537
0-
#538
b0001000 (
1-
b1101001 2
#539
0-
#540
b0000111 (
1-
b1010011 2
#541
0-
#542
b0000110 (
1-
b0100111 2
#543
0-
#544
b0000101 (
1-
b1001111 2
#545
0-
#546
b0000100 (
1-
b0011110 2
#547
0-
#548
b0000011 (
1-
b0111101 2
#549
0-
#550
b0000010 (
1-
b1111011 2
#551
0-
#552
b0000001 (
1-
b1110111 2
#553
0-
#554
b0000000 (
b00000000000000000000000000000010 *
1-
b1101110 2
#555
0-
#556
1&
1'
b1101101 (
b00000000000000000000000000000010 )
b00000000000000000000000000000000 *
1-
b1011100 2
b00000000000000000000000000001001 3
#557
0-
#558
1#
0&
0'
b1101100 (
b00000000000000000000000000000000 )
b00000000000000000000000000001001 +
1-
b00000000 1
b0111000 2
#559
0-
#560
b1101011 (
b10001 ,
1-
b1110000 2
#561
0-
#562
b1101010 (
b10000 ,
1-
b1100001 2
#563
0-
#564
b1101001 (
b01111 ,
1-
b1000011 2
#565
0-
#566
b1101000 (
b01110 ,
1-
b0000111 2
#567
0-
#568
b1100111 (
b01101 ,
1-
b0001111 2
#569
0-
#570
b1100110 (
b01100 ,
1-
b0011111 2
#571
0-
#572
b1100101 (
b01011 ,
1-
b0111111 2
#573
0-
#574
b1100100 (
b01010 ,
1-
b1111111 2
#575
0-
#576
b1100011 (
b01001 ,
1-
b1111110 2
#577
0-
#578
b1100010 (
b01000 ,
1-
b1111100 2
#579
0-
#580
b1100001 (
b00111 ,
1-
b1111000 2
#581
0-
#582
b1100000 (
b00110 ,
1-
b1110001 2
#583
0-
#584
b1011111 (
b00101 ,
1-
b1100011 2
#585
0-
#586
b1011110 (
b00100 ,
1-
b1000111 2
#587
0-
#588
b1011101 (
b00011 ,
1-
b0001110 2
#589
0-
#590
b1011100 (
b00010 ,
1-
b0011101 2
#591
0-
#592
b1011011 (
b00001 ,
1-
b0111011 2
#593
0-
#594
b1011010 (
b00000 ,
1-
b1110110 2
#595
0-
#596
1%
1'
b1011001 (
b10011 ,
1-
b1101100 2
#597
0-
#598
0%
0'
b1011000 (
b10010 ,
1-
b1011000 2
#599
0-
#600
b1010111 (
b10001 ,
1-
b0110001 2
#601
0-
#602
b1010110 (
b10000 ,
1-
b1100010 2
#603
0-
#604
b1010101 (
b01111 ,
1-
b1000101 2
#605
0-
#606
b1010100 (
b01110 ,
1-
b0001010 2
#607
0-
#608
b1010011 (
b01101 ,
1-
b0010100 2
#609
0-
#610
b1010010 (
b01100 ,
1-
b0101001 2
#611
0-
#612
b1010001 (
b01011 ,
1-
b1010010 2
#613
0-
#614
b1010000 (
b01010 ,
1-
b0100101 2
#615
0-
#616
b1001111 (
b01001 ,
1-
b1001011 2
#617
0-
#618
b1001110 (
b01000 ,
1-
b0010111 2
#619
0-
#620
b1001101 (
b00111 ,
1-
b0101111 2
#621
0-
#622
b1001100 (
b00110 ,
1-
b1011111 2
#623
0-
#624
b1001011 (
b00101 ,
1-
b0111110 2
#625
0-
#626
b1001010 (
b00100 ,
1-
b1111101 2
#627
0-
#628
b1001001 (
b00011 ,
1-
b1111010 2
#629
0-
#630
b1001000 (
b00010 ,
1-
b1110101 2
#631
0-
#632
b1000111 (
b00001 ,
1-
b1101010 2
#633
0-
#634
b1000110 (
b00000 ,
1-
b1010101 2
#635
0-
#636
1%
1'
b1000101 (
b10011 ,
1-
b0101010 2
#637
0-
#638
0%
0'
b1000100 (
b10010 ,
1-
b1010100 2
#639
0-
#640
b1000011 (
b10001 ,
1-
b0101000 2
#641
0-
#642
b1000010 (
b10000 ,
1-
b1010000 2
#643
0-
#644
b1000001 (
b01111 ,
1-
b0100001 2
#645
0-
#646
b1000000 (
b01110 ,
1-
b1000010 2
#647
0-
#648
b0111111 (
b01101 ,
1-
b0000101 2
#649
0-
#650
b0111110 (
b01100 ,
1-
b0001011 2
#651
0-
#652
b0111101 (
b01011 ,
1-
b0010110 2
#653
0-
#654
b0111100 (
b01010 ,
1-
b0101101 2
#655
0-
#656
b0111011 (
b01001 ,
1-
b1011011 2
#657
0-
#658
b0111010 (
b01000 ,
1-
b0110111 2
#659
0-
#660
b0111001 (
b00111 ,
1-
b1101111 2
#661
0-
#662
b0111000 (
b00110 ,
1-
b1011110 2
#663
0-
#664
b0110111 (
b00101 ,
1-
b0111100 2
#665
0-
#666
b0110110 (
b00100 ,
1-
b1111001 2
#667
0-
#668
b0110101 (
b00011 ,
1-
b1110011 2
#669
0-
#670
b0110100 (
b00010 ,
1-
b1100111 2
#671
0-
#672
b0110011 (
b00001 ,
1-
b1001110 2
#673
0-
#674
b0110010 (
b00000 ,
1-
b0011100 2
#675
0-
#676
1%
1'
b0110001 (
b10011 ,
1-
b0111001 2
#677
0-
#678
0%
0'
b0110000 (
b10010 ,
1-
b1110010 2
#679
0-
#680
b0101111 (
b10001 ,
1-
b1100101 2
#681
0-
#682
b0101110 (
b10000 ,
1-
b1001010 2
#683
0-
#684
b0101101 (
b01111 ,
1-
b0010101 2
#685
0-
#686
b0101100 (
b01110 ,
1-
b0101011 2
#687
0-
#688
b0101011 (
b01101 ,
1-
b1010110 2
#689
0-
#690
b0101010 (
b01100 ,
1-
b0101100 2
#691
0-
#692
b0101001 (
b01011 ,
1-
b1011001 2
#693
0-
#694
b0101000 (
b01010 ,
1-
b0110011 2
#695
0-
#696
b0100111 (
b01001 ,
1-
b1100110 2
#697
0-
#698
b0100110 (
b01000 ,
1-
b1001100 2
#699
0-
#700
b0100101 (
b00111 ,
1-
b0011000 2
#701
0-
#702
b0100100 (
b00110 ,
1-
b0110000 2
#703
0-
#704
b0100011 (
b00101 ,
1-
b1100000 2
#705
0-
#706
b0100010 (
b00100 ,
1-
b1000001 2
#707
0-
#708
b0100001 (
b00011 ,
1-
b0000011 2
#709
0-
#710
b0100000 (
b00010 ,
1-
b0000110 2
#711
0-
#712
b0011111 (
b00001 ,
1-
b0001101 2
#713
0-
#714
b0011110 (
b00000 ,
1-
b0011011 2
#715
0-
#716
1%
1'
b0011101 (
b10011 ,
1-
b0110110 2
#717
0-
#718
0%
0'
b0011100 (
b10010 ,
1-
b1101101 2
#719
0-
#720
b0011011 (
b10001 ,
1-
b1011010 2
#721
0-
#722
b0011010 (
b10000 ,
1-
b0110101 2
#723
0-
#724
b0011001 (
b01111 ,
1-
b1101011 2
#725
0-
#726
b0011000 (
b01110 ,
1-
b1010111 2
#727
0-
#728
b0010111 (
b01101 ,
1-
b0101110 2
#729
0-
#730
b0010110 (
b01100 ,
1-
b1011101 2
#731
0-
#732
b0010101 (
b01011 ,
1-
b0111010 2
#733
0-
#734
b0010100 (
b01010 ,
1-
b1110100 2
#735
0-
#736
b0010011 (
b01001 ,
1-
b1101000 2
#737
0-
#738
b0010010 (
b01000 ,
1-
b1010001 2
#739
0-
#740
b0010001 (
b00111 ,
1-
b0100011 2
#741
0-
#742
b0010000 (
b00110 ,
1-
b1000110 2
#743
0-
#744
b0001111 (
b00101 ,
1-
b0001100 2
#745
0-
#746
b0001110 (
b00100 ,
1-
b0011001 2
#747
0-
#748
b0001101 (
b00011 ,
1-
b0110010 2
#749
0-
#750
b0001100 (
b00010 ,
1-
b1100100 2
#751
0-
#752
b0001011 (
b00001 ,
1-
b1001000 2
#753
0-
#754
b0001010 (
b00000 ,
1-
b0010001 2
#755
0-
#756
1%
1'
b0001001 (
b10011 ,
1-
b0100010 2
#757
0-
#758
0%
0'
b0001000 (
b10010 ,
1-
b1000100 2
#759
0-
#760
b0000111 (
b10001 ,
1-
b0001000 2
#761
0-
#762
b0000110 (
b10000 ,
1-
b0010000 2
#763
0-
#764
b0000101 (
b01111 ,
1-
b0100000 2
#765
0-
#766
b0000100 (
b01110 ,
1-
b1000000 2
#767
0-
#768
b0000011 (
b01101 ,
1-
b0000001 2
#769
0-
#770
b0000010 (
b01100 ,
1-
b0000010 2
#771
0-
#772
b0000001 (
b01011 ,
1-
b0000100 2
#773
0-
#774
b0000000 (
b01010 ,
1-
b0001001 2
#775
0-
#776
b0001000 (
b01001 ,
1-
b0010010 2
#777
0-
#778
b0000111 (
b01000 ,
1-
b0100100 2
#779
0-
#780
b0000110 (
b00111 ,
1-
b1001001 2
#781
0-
#782
b0000101 (
b00110 ,
1-
b0010011 2
#783
0-
#784
b0000100 (
b00101 ,
1-
b0100110 2
#785
0-
#786
b0000011 (
b00100 ,
1-
b1001101 2
#787
0-
#788
b0000010 (
b00011 ,
1-
b0011010 2
#789
0-
#790
b0000001 (
b00010 ,
1-
b0110100 2
#791
0-
#792
b0000000 (
b00001 ,
1-
b1101001 2
#793
0-
#794
b1101000 (
b00000 ,
1-
b1010011 2
#795
0-
#796
1%
1'
b1100111 (
b10011 ,
1-
b0100111 2
#797
0-
#798
0%
0'
b1100110 (
b10010 ,
1-
b1001111 2
#799
0-
#800
b1100101 (
b10001 ,
1-
b0011110 2
#801
0-
#802
b1100100 (
b10000 ,
1-
b0111101 2
#803
0-
#804
b1100011 (
b01111 ,
1-
b1111011 2
#805
0-
#806
b1100010 (
b01110 ,
1-
b1110111 2
#807
0-
#808
b1100001 (
b01101 ,
1-
b1101110 2
#809
0-
#810
b1100000 (
b01100 ,
1-
b1011100 2
#811
0-
#812
b1011111 (
b01011 ,
1-
b0111000 2
#813
0-
#814
b1011110 (
b01010 ,
1-
b1110000 2
#815
0-
#816
b1011101 (
b01001 ,
1-
b1100001 2
#817
0-
#818
b1011100 (
b01000 ,
1-
b1000011 2
#819
0-
#820
b1011011 (
b00111 ,
1-
b0000111 2
#821
0-
#822
b1011010 (
b00110 ,
1-
b0001111 2
#823
0-
#824
b1011001 (
b00101 ,
1-
b0011111 2
#825
0-
#826
b1011000 (
b00100 ,
1-
b0111111 2
#827
0-
#828
b1010111 (
b00011 ,
1-
b1111111 2
#829
0-
#830
b1010110 (
b00010 ,
1-
b1111110 2
#831
0-
#832
b1010101 (
b00001 ,
1-
b1111100 2
#833
0-
#834
b1010100 (
b00000 ,
1-
b1111000 2
#835
0-
#836
1%
1'
b1010011 (
b10011 ,
1-
b1110001 2
#837
0-
#838
0%
0'
b1010010 (
b10010 ,
1-
b1100011 2
#839
0-
#840
b1010001 (
b10001 ,
1-
b1000111 2
#841
0-
#842
b1010000 (
b10000 ,
1-
b0001110 2
#843
0-
#844
b1001111 (
b01111 ,
1-
b0011101 2
#845
0-
#846
b1001110 (
b01110 ,
1-
b0111011 2
#847
0-
#848
b1001101 (
b01101 ,
1-
b1110110 2
#849
0-
#850
b1001100 (
b01100 ,
1-
b1101100 2
#851
0-
#852
b1001011 (
b01011 ,
1-
b1011000 2
#853
0-
